Carlos Olson

Vlasis Panotis

Ram Ranganekar

Rikimaru Tadasuke

Katherina Catling
Violenta Abergavenny

Arthur

Hamamura Yasubei

aboll

Axis Brightsand

Jawahar Shrivastava

Junkburn

Otto Martinsen

Karl Williamson

Fujioka sukeatsu
Matsuda yukiie

Koba Kanzahiko

Henry Erwin

Christopher Macdonald
Chris Lindsey

Adam Leon

Alfie Cole

Jamie Marshall

Bishweshwar Khadka
